…
#### Selecting column and filtering rows

To select columns of a data frame, use select(). The first argument to
this function is the data frame (surveys), and the subsequent arguments
are the columns to keep.

``` r
select(surveys, plot_id, species_id, weight)
```

    ## # A tibble: 34,786 x 3
    ##    plot_id species_id weight
    ##      <dbl> <chr>       <dbl>
    ##  1       2 NL             NA
    ##  2       2 NL             NA
    ##  3       2 NL             NA
    ##  4       2 NL             NA
    ##  5       2 NL             NA
    ##  6       2 NL             NA
    ##  7       2 NL             NA
    ##  8       2 NL             NA
    ##  9       2 NL            218
    ## 10       2 NL             NA
    ## # … with 34,776 more rows

To select all columns except certain ones, put a “-” in front of the
variable to exclude it.

``` r
select(surveys, -record_id, -species_id)
```

    ## # A tibble: 34,786 x 11
    ##    month   day  year plot_id sex   hindfoot_length weight genus species
    ##    <dbl> <dbl> <dbl>   <dbl> <chr>           <dbl>  <dbl> <chr> <chr>  
    ##  1     7    16  1977       2 M                  32     NA Neot… albigu…
    ##  2     8    19  1977       2 M                  31     NA Neot… albigu…
    ##  3     9    13  1977       2 <NA>               NA     NA Neot… albigu…
    ##  4    10    16  1977       2 <NA>               NA     NA Neot… albigu…
    ##  5    11    12  1977       2 <NA>               NA     NA Neot… albigu…
    ##  6    11    12  1977       2 <NA>               NA     NA Neot… albigu…
    ##  7    12    10  1977       2 <NA>               NA     NA Neot… albigu…
    ##  8     1     8  1978       2 <NA>               NA     NA Neot… albigu…
    ##  9     2    18  1978       2 M                  NA    218 Neot… albigu…
    ## 10     3    11  1978       2 <NA>               NA     NA Neot… albigu…
    ## # … with 34,776 more rows, and 2 more variables: taxa <chr>,
    ## #   plot_type <chr>

This will select all the variables in surveys except record\_id and
species\_id.

To choose rows based on a specific criteria, use filter():

``` r
filter(surveys, year == 1995)
## # A tibble: 1,180 x 13
##    record_id month   day  year plot_id species_id sex   hindfoot_length
##        <dbl> <dbl> <dbl> <dbl>   <dbl> <chr>      <chr>           <dbl>
##  1     22314     6     7  1995       2 NL         M                  34
##  2     22728     9    23  1995       2 NL         F                  32
##  3     22899    10    28  1995       2 NL         F                  32
##  4     23032    12     2  1995       2 NL         F                  33
##  5     22003     1    11  1995       2 DM         M                  37
##  6     22042     2     4  1995       2 DM         F                  36
##  7     22044     2     4  1995       2 DM         M                  37
##  8     22105     3     4  1995       2 DM         F                  37
##  9     22109     3     4  1995       2 DM         M                  37
## 10     22168     4     1  1995       2 DM         M                  36
## # … with 1,170 more rows, and 5 more variables: weight <dbl>, genus <chr>,
## #   species <chr>, taxa <chr>, plot_type <chr>
```
…
#### Mutate

Frequently you’ll want to create new columns based on the values in
existing columns, for example to do unit conversions, value
normalization or to find the ratio of values in two columns. For this
we’ll use mutate().

To create a new column of weight in kg:

``` r
surveys %>% 
  mutate(weight_kg = weight / 1000)
## # A tibble: 34,786 x 14
##    record_id month   day  year plot_id species_id sex   hindfoot_length
##        <dbl> <dbl> <dbl> <dbl>   <dbl> <chr>      <chr>           <dbl>
##  1         1     7    16  1977       2 NL         M                  32
##  2        72     8    19  1977       2 NL         M                  31
##  3       224     9    13  1977       2 NL         <NA>               NA
##  4       266    10    16  1977       2 NL         <NA>               NA
##  5       349    11    12  1977       2 NL         <NA>               NA
##  6       363    11    12  1977       2 NL         <NA>               NA
##  7       435    12    10  1977       2 NL         <NA>               NA
##  8       506     1     8  1978       2 NL         <NA>               NA
##  9       588     2    18  1978       2 NL         M                  NA
## 10       661     3    11  1978       2 NL         <NA>               NA
## # … with 34,776 more rows, and 6 more variables: weight <dbl>,
## #   genus <chr>, species <chr>, taxa <chr>, plot_type <chr>,
## #   weight_kg <dbl>
```
…
You may also have noticed that the output from these calls doesn’t run
off the screen anymore. It’s one of the advantages of `tbl_df` over data
frame.

You can also group by multiple columns:

``` r
surveys %>% 
  group_by(sex, species_id) %>% 
  summarise(mean_weight = mean(weight,na.rm=TRUE))
## # A tibble: 92 x 3
## # Groups:   sex [3]
##    sex   species_id mean_weight
##    <chr> <chr>            <dbl>
##  1 F     BA                9.16
##  2 F     DM               41.6 
##  3 F     DO               48.5 
##  4 F     DS              118.  
##  5 F     NL              154.  
##  6 F     OL               31.1 
##  7 F     OT               24.8 
##  8 F     OX               21   
##  9 F     PB               30.2 
## 10 F     PE               22.8 
## # … with 82 more rows
```

When grouping both by sex and species\_id, the last few rows are for
animals that escaped before their sex and body weights could be
determined. You may notice that the last column does not contain NA but
NaN (which refers to “Not a Number”). To avoid this, we can remove the
missing values for weight before we attempt to calculate the summary
statistics on weight. Because the missing values are removed first, we
can omit na.rm = TRUE when computing the mean:

``` r
surveys %>%
  filter(!is.na(weight)) %>% 
  group_by(sex, species_id) %>% 
  summarise(mean_weight = mean(weight))
## # A tibble: 64 x 3
## # Groups:   sex [3]
##    sex   species_id mean_weight
##    <chr> <chr>            <dbl>
##  1 F     BA                9.16
##  2 F     DM               41.6 
##  3 F     DO               48.5 
##  4 F     DS              118.  
##  5 F     NL              154.  
##  6 F     OL               31.1 
##  7 F     OT               24.8 
##  8 F     OX               21   
##  9 F     PB               30.2 
## 10 F     PE               22.8 
## # … with 54 more rows
```

Once the data are grouped, you can also summarize multiple variables at
the same time (and not necessarily on the same variable). For instance,
we could add a column indicating the minimum weight for each species for
each sex. We also can sort the value for example based on min\_weight
using `arrange()`

``` r
surveys %>%
  filter(!is.na(weight)) %>% 
  group_by(sex, species_id) %>% 
  summarise(mean_weight = mean(weight),
            min_weight = min(weight)) %>% 
  arrange(min_weight)
## # A tibble: 64 x 4
## # Groups:   sex [3]
##    sex   species_id mean_weight min_weight
##    <chr> <chr>            <dbl>      <dbl>
##  1 F     PF                7.97          4
##  2 F     RM               11.1           4
##  3 M     PF                7.89          4
##  4 M     PP               17.2           4
##  5 M     RM               10.1           4
##  6 <NA>  PF                6             4
##  7 F     OT               24.8           5
##  8 F     PP               17.2           5
##  9 F     BA                9.16          6
## 10 M     BA                7.36          6
## # … with 54 more rows
```
…
Previous example shows the use of `count()` to count the number of
rows/observations for one factor (i.e., sex). If we wanted to count
combination of factors, such as sex and species, we would specify the
first and the second factor as the arguments of `count()`:

``` r
surveys %>% 
  count(sex, species_id)
## # A tibble: 92 x 3
##    sex   species_id     n
##    <chr> <chr>      <int>
##  1 F     BA            31
##  2 F     DM          4554
##  3 F     DO          1308
##  4 F     DS          1188
##  5 F     NL           675
##  6 F     OL           475
##  7 F     OT          1057
##  8 F     OX             4
##  9 F     PB          1646
## 10 F     PE           579
## # … with 82 more rows
```

With the above code, we can proceed with `arrange()` to sort the table
according to a number of criteria so that we have a better comparison.
For instance, we might want to arrange the table above in (i) an
alphabetical order of the levels of the species and (ii) in descending
order of the count:

``` r
surveys %>% 
  count(sex, species_id) %>% 
  arrange(species_id, desc(n))
## # A tibble: 92 x 3
##    sex   species_id     n
##    <chr> <chr>      <int>
##  1 <NA>  AB           303
##  2 <NA>  AH           436
##  3 M     AH             1
##  4 <NA>  AS             2
##  5 F     BA            31
##  6 M     BA            14
##  7 <NA>  BA             1
##  8 <NA>  CB            50
##  9 <NA>  CM            13
## 10 <NA>  CQ            16
## # … with 82 more rows
```
…
