…
``` r
surveys %>%
    filter(!is.na(hindfoot_length)) %>%
    group_by(species_id) %>%
    summarize(
        mean_hindfoot_length = mean(hindfoot_length),
        min_hindfoot_length = min(hindfoot_length),
        max_hindfoot_length = max(hindfoot_length),
        n = n()
    )
```

    ## # A tibble: 25 x 5
    ##    species_id mean_hindfoot_len… min_hindfoot_leng… max_hindfoot_len…     n
    ##    <chr>                   <dbl>              <dbl>             <dbl> <int>
    ##  1 AH                       33                   31                35     2
    ##  2 BA                       13                    6                16    45
    ##  3 DM                       36.0                 16                50  9972
    ##  4 DO                       35.6                 26                64  2887
    ##  5 DS                       49.9                 39                58  2132
    ##  6 NL                       32.3                 21                70  1074
    ##  7 OL                       20.5                 12                39   920
    ##  8 OT                       20.3                 13                50  2139
    ##  9 OX                       19.1                 13                21     8
    ## 10 PB                       26.1                  2                47  2864
    ## # … with 15 more rows

> 3.  What was the heaviest animal measured in each year? Return the
>     columns year, genus, species\_id, and weight.

``` r
surveys %>%
    filter(!is.na(weight)) %>%
    group_by(year) %>%
    filter(weight == max(weight)) %>%
    select(year, genus, species, weight) %>%
    arrange(year)
```

    ## # A tibble: 27 x 4
    ## # Groups:   year [26]
    ##     year genus     species     weight
    ##    <dbl> <chr>     <chr>        <dbl>
    ##  1  1977 Dipodomys spectabilis    149
    ##  2  1978 Neotoma   albigula       232
    ##  3  1978 Neotoma   albigula       232
    ##  4  1979 Neotoma   albigula       274
    ##  5  1980 Neotoma   albigula       243
    ##  6  1981 Neotoma   albigula       264
    ##  7  1982 Neotoma   albigula       252
    ##  8  1983 Neotoma   albigula       256
    ##  9  1984 Neotoma   albigula       259
    ## 10  1985 Neotoma   albigula       225
    ## # … with 17 more rows
…
use `spread()`

``` r
surveys_long %>%
  group_by(year, measurement, plot_type) %>%
  summarize(mean_value = mean(value, na.rm=TRUE)) %>%
  spread(measurement, mean_value)
```

    ## # A tibble: 130 x 4
    ## # Groups:   year [26]
    ##     year plot_type                 hindfoot_length weight
    ##    <dbl> <chr>                               <dbl>  <dbl>
    ##  1  1977 Control                              36.1   50.4
    ##  2  1977 Long-term Krat Exclosure             33.7   34.8
    ##  3  1977 Rodent Exclosure                     39.1   48.2
    ##  4  1977 Short-term Krat Exclosure            35.8   41.3
    ##  5  1977 Spectab exclosure                    37.2   47.1
    ##  6  1978 Control                              38.1   70.8
    ##  7  1978 Long-term Krat Exclosure             22.6   35.9
    ##  8  1978 Rodent Exclosure                     37.8   67.3
    ##  9  1978 Short-term Krat Exclosure            36.9   63.8
    ## 10  1978 Spectab exclosure                    42.3   80.1
    ## # … with 120 more rows
